settings.ts
	2018-11-26T13:02:15.510Z - Creating settings with internal settings.json path and external extensions.json path: /home/kai/.vscode/extensions/golf1052.code-sync-2.5.3/settings.json, extensions.json.
helpers.ts
	2018-11-26T13:02:15.734Z - Found code version: 1.29.1
bc24f98b5f70467bc689abf41cc5550ca637088e
x64
.
cs.ts
	2018-11-26T13:02:15.735Z - Checking settings
	2018-11-26T13:02:15.756Z - Could not find settings in /home/kai/.vscode/extensions/golf1052.code-sync-2.5.3/settings.json. Creating...
