[2018-11-26 13:43:37.398] [renderer1] [info] no standard startup: not the explorer viewlet
[2018-11-26 13:44:23.956] [renderer1] [info] no standard startup: not just one text editor
[2018-11-26 13:44:40.760] [renderer1] [info] no standard startup: not a new window
