{
    "telemetry.machineId": "e6bc7a196b0a3d900236fea28746d65ffd0c72b11ddac0db5f802b317748da46",
    "lastKnownMenubarData": {
        "menus": {
            "File": {
                "items": [
                    {
                        "id": "workbench.action.files.newUntitledFile",
                        "label": "&&New File"
                    },
                    {
                        "id": "workbench.action.newWindow",
                        "label": "New &&Window"
                    },
                    {
                        "id": "vscode.menubar.separator"
                    },
                    {
                        "id": "workbench.action.files.openFile",
                        "label": "&&Open File..."
                    },
                    {
                        "id": "workbench.action.files.openFolder",
                        "label": "Open &&Folder..."
                    },
                    {
                        "id": "workbench.action.openWorkspace",
                        "label": "Open Wor&&kspace..."
                    },
                    {
                        "id": "",
                        "label": "Open &&Recent",
                        "submenu": {
                            "items": [
                                {
                                    "id": "workbench.action.reopenClosedEditor",
                                    "label": "&&Reopen Closed Editor"
                                },
                                {
                                    "id": "vscode.menubar.separator"
                                },
                                {
                                    "id": "workbench.action.openRecent",
                                    "label": "&&More..."
                                },
                                {
                                    "id": "vscode.menubar.separator"
                                },
                                {
                                    "id": "workbench.action.clearRecentFiles",
                                    "label": "&&Clear Recently Opened"
                                }
                            ]
                        }
                    },
                    {
                        "id": "vscode.menubar.separator"
                    },
                    {
                        "id": "addRootFolder",
                        "label": "A&&dd Folder to Workspace..."
                    },
                    {
                        "id": "workbench.action.saveWorkspaceAs",
                        "label": "Save Workspace As..."
                    },
                    {
                        "id": "vscode.menubar.separator"
                    },
                    {
                        "id": "workbench.action.files.save",
                        "label": "&&Save"
                    },
                    {
                        "id": "workbench.action.files.saveAs",
                        "label": "Save &&As..."
                    },
                    {
                        "id": "workbench.action.files.saveAll",
                        "label": "Save A&&ll"
                    },
                    {
                        "id": "vscode.menubar.separator"
                    },
                    {
                        "id": "workbench.action.toggleAutoSave",
                        "label": "A&&uto Save"
                    },
                    {
                        "id": "",
                        "label": "&&Preferences",
                        "submenu": {
                            "items": [
                                {
                                    "id": "workbench.action.openSettings",
                                    "label": "&&Settings"
                                },
                                {
                                    "id": "workbench.view.extensions",
                                    "label": "&&Extensions"
                                },
                                {
                                    "id": "vscode.menubar.separator"
                                },
                                {
                                    "id": "workbench.action.openGlobalKeybindings",
                                    "label": "&&Keyboard Shortcuts"
                                },
                                {
                                    "id": "workbench.extensions.action.showRecommendedKeymapExtensions",
                                    "label": "&&Keymaps"
                                },
                                {
                                    "id": "vscode.menubar.separator"
                                },
                                {
                                    "id": "workbench.action.openSnippets",
                                    "label": "User &&Snippets"
                                },
                                {
                                    "id": "vscode.menubar.separator"
                                },
                                {
                                    "id": "workbench.action.selectTheme",
                                    "label": "&&Color Theme"
                                },
                                {
                                    "id": "workbench.action.selectIconTheme",
                                    "label": "File &&Icon Theme"
                                }
                            ]
                        }
                    },
                    {
                        "id": "vscode.menubar.separator"
                    },
                    {
                        "id": "workbench.action.files.revert",
                        "label": "Re&&vert File",
                        "enabled": false
                    },
                    {
                        "id": "workbench.action.closeActiveEditor",
                        "label": "&&Close Editor"
                    },
                    {
                        "id": "workbench.action.closeFolder",
                        "label": "Close &&Folder"
                    },
                    {
                        "id": "workbench.action.closeWindow",
                        "label": "Clos&&e Window"
                    },
                    {
                        "id": "vscode.menubar.separator"
                    },
                    {
                        "id": "workbench.action.quit",
                        "label": "E&&xit"
                    }
                ]
            },
            "Edit": {
                "items": [
                    {
                        "id": "undo",
                        "label": "&&Undo"
                    },
                    {
                        "id": "redo",
                        "label": "&&Redo"
                    },
                    {
                        "id": "vscode.menubar.separator"
                    },
                    {
                        "id": "editor.action.clipboardCutAction",
                        "label": "Cu&&t"
                    },
                    {
                        "id": "editor.action.clipboardCopyAction",
                        "label": "&&Copy"
                    },
                    {
                        "id": "editor.action.clipboardPasteAction",
                        "label": "&&Paste"
                    },
                    {
                        "id": "vscode.menubar.separator"
                    },
                    {
                        "id": "actions.find",
                        "label": "&&Find"
                    },
                    {
                        "id": "editor.action.startFindReplaceAction",
                        "label": "&&Replace"
                    },
                    {
                        "id": "vscode.menubar.separator"
                    },
                    {
                        "id": "workbench.action.findInFiles",
                        "label": "Find &&in Files"
                    },
                    {
                        "id": "workbench.action.replaceInFiles",
                        "label": "Replace &&in Files"
                    },
                    {
                        "id": "vscode.menubar.separator"
                    },
                    {
                        "id": "editor.action.commentLine",
                        "label": "&&Toggle Line Comment"
                    },
                    {
                        "id": "editor.action.blockComment",
                        "label": "Toggle &&Block Comment"
                    },
                    {
                        "id": "editor.emmet.action.expandAbbreviation",
                        "label": "Emmet: E&&xpand Abbreviation"
                    },
                    {
                        "id": "workbench.action.showEmmetCommands",
                        "label": "E&&mmet..."
                    }
                ]
            },
            "Selection": {
                "items": [
                    {
                        "id": "editor.action.selectAll",
                        "label": "&&Select All"
                    },
                    {
                        "id": "editor.action.smartSelect.grow",
                        "label": "&&Expand Selection"
                    },
                    {
                        "id": "editor.action.smartSelect.shrink",
                        "label": "&&Shrink Selection"
                    },
                    {
                        "id": "vscode.menubar.separator"
                    },
                    {
                        "id": "editor.action.copyLinesUpAction",
                        "label": "&&Copy Line Up"
                    },
                    {
                        "id": "editor.action.copyLinesDownAction",
                        "label": "Co&&py Line Down"
                    },
                    {
                        "id": "editor.action.moveLinesUpAction",
                        "label": "Mo&&ve Line Up"
                    },
                    {
                        "id": "editor.action.moveLinesDownAction",
                        "label": "Move &&Line Down"
                    },
                    {
                        "id": "vscode.menubar.separator"
                    },
                    {
                        "id": "workbench.action.toggleMultiCursorModifier",
                        "label": "Switch to Ctrl+Click for Multi-Cursor"
                    },
                    {
                        "id": "editor.action.insertCursorAbove",
                        "label": "&&Add Cursor Above"
                    },
                    {
                        "id": "editor.action.insertCursorBelow",
                        "label": "A&&dd Cursor Below"
                    },
                    {
                        "id": "editor.action.insertCursorAtEndOfEachLineSelected",
                        "label": "Add C&&ursors to Line Ends"
                    },
                    {
                        "id": "editor.action.addSelectionToNextFindMatch",
                        "label": "Add &&Next Occurrence"
                    },
                    {
                        "id": "editor.action.addSelectionToPreviousFindMatch",
                        "label": "Add P&&revious Occurrence"
                    },
                    {
                        "id": "editor.action.selectHighlights",
                        "label": "Select All &&Occurrences"
                    }
                ]
            },
            "View": {
                "items": [
                    {
                        "id": "workbench.action.showCommands",
                        "label": "&&Command Palette..."
                    },
                    {
                        "id": "workbench.action.openView",
                        "label": "&&Open View..."
                    },
                    {
                        "id": "vscode.menubar.separator"
                    },
                    {
                        "id": "",
                        "label": "&&Appearance",
                        "submenu": {
                            "items": [
                                {
                                    "id": "workbench.action.toggleFullScreen",
                                    "label": "Toggle &&Full Screen"
                                },
                                {
                                    "id": "workbench.action.toggleZenMode",
                                    "label": "Toggle Zen Mode"
                                },
                                {
                                    "id": "workbench.action.toggleCenteredLayout",
                                    "label": "Toggle Centered Layout"
                                },
                                {
                                    "id": "workbench.action.toggleMenuBar",
                                    "label": "Toggle Menu &&Bar"
                                },
                                {
                                    "id": "vscode.menubar.separator"
                                },
                                {
                                    "id": "workbench.action.toggleSidebarVisibility",
                                    "label": "&&Toggle Side Bar"
                                },
                                {
                                    "id": "workbench.action.toggleSidebarPosition",
                                    "label": "&&Move Side Bar Right"
                                },
                                {
                                    "id": "workbench.action.toggleStatusbarVisibility",
                                    "label": "&&Hide Status Bar"
                                },
                                {
                                    "id": "workbench.action.togglePanelPosition",
                                    "label": "Toggle Panel Position"
                                },
                                {
                                    "id": "workbench.action.toggleActivityBarVisibility",
                                    "label": "Show &&Activity Bar"
                                },
                                {
                                    "id": "workbench.action.togglePanel",
                                    "label": "Toggle &&Panel"
                                },
                                {
                                    "id": "vscode.menubar.separator"
                                },
                                {
                                    "id": "workbench.action.zoomIn",
                                    "label": "&&Zoom In"
                                },
                                {
                                    "id": "workbench.action.zoomOut",
                                    "label": "&&Zoom Out"
                                },
                                {
                                    "id": "workbench.action.zoomReset",
                                    "label": "&&Reset Zoom"
                                }
                            ]
                        }
                    },
                    {
                        "id": "",
                        "label": "Editor &&Layout",
                        "submenu": {
                            "items": [
                                {
                                    "id": "workbench.action.splitEditorUp",
                                    "label": "Split &&Up"
                                },
                                {
                                    "id": "workbench.action.splitEditorDown",
                                    "label": "Split &&Down"
                                },
                                {
                                    "id": "workbench.action.splitEditorLeft",
                                    "label": "Split &&Left"
                                },
                                {
                                    "id": "workbench.action.splitEditorRight",
                                    "label": "Split &&Right"
                                },
                                {
                                    "id": "vscode.menubar.separator"
                                },
                                {
                                    "id": "workbench.action.editorLayoutSingle",
                                    "label": "&&Single"
                                },
                                {
                                    "id": "workbench.action.toggleCenteredLayout",
                                    "label": "&&Centered"
                                },
                                {
                                    "id": "workbench.action.editorLayoutTwoColumns",
                                    "label": "&&Two Columns"
                                },
                                {
                                    "id": "workbench.action.editorLayoutThreeColumns",
                                    "label": "T&&hree Columns"
                                },
                                {
                                    "id": "workbench.action.editorLayoutTwoRows",
                                    "label": "T&&wo Rows"
                                },
                                {
                                    "id": "workbench.action.editorLayoutThreeRows",
                                    "label": "Three &&Rows"
                                },
                                {
                                    "id": "workbench.action.editorLayoutTwoByTwoGrid",
                                    "label": "&&Grid (2x2)"
                                },
                                {
                                    "id": "workbench.action.editorLayoutTwoRowsRight",
                                    "label": "Two R&&ows Right"
                                },
                                {
                                    "id": "workbench.action.editorLayoutTwoColumnsBottom",
                                    "label": "Two &&Columns Bottom"
                                },
                                {
                                    "id": "vscode.menubar.separator"
                                },
                                {
                                    "id": "workbench.action.toggleEditorGroupLayout",
                                    "label": "Flip &&Layout"
                                }
                            ]
                        }
                    },
                    {
                        "id": "vscode.menubar.separator"
                    },
                    {
                        "id": "workbench.view.explorer",
                        "label": "&&Explorer"
                    },
                    {
                        "id": "workbench.view.search",
                        "label": "&&Search"
                    },
                    {
                        "id": "workbench.view.scm",
                        "label": "S&&CM"
                    },
                    {
                        "id": "workbench.view.debug",
                        "label": "&&Debug"
                    },
                    {
                        "id": "workbench.view.extensions",
                        "label": "E&&xtensions"
                    },
                    {
                        "id": "vscode.menubar.separator"
                    },
                    {
                        "id": "workbench.action.output.toggleOutput",
                        "label": "&&Output"
                    },
                    {
                        "id": "workbench.debug.action.toggleRepl",
                        "label": "De&&bug Console"
                    },
                    {
                        "id": "workbench.action.terminal.toggleTerminal",
                        "label": "&&Terminal"
                    },
                    {
                        "id": "workbench.actions.view.problems",
                        "label": "&&Problems"
                    },
                    {
                        "id": "vscode.menubar.separator"
                    },
                    {
                        "id": "editor.action.toggleWordWrap",
                        "label": "Toggle &&Word Wrap"
                    },
                    {
                        "id": "editor.action.toggleMinimap",
                        "label": "Toggle &&Minimap"
                    },
                    {
                        "id": "editor.action.toggleRenderWhitespace",
                        "label": "Toggle &&Render Whitespace"
                    },
                    {
                        "id": "editor.action.toggleRenderControlCharacter",
                        "label": "Toggle &&Control Characters"
                    },
                    {
                        "id": "breadcrumbs.toggle",
                        "label": "Toggle &&Breadcrumbs"
                    }
                ]
            },
            "Go": {
                "items": [
                    {
                        "id": "workbench.action.navigateBack",
                        "label": "&&Back",
                        "enabled": false
                    },
                    {
                        "id": "workbench.action.navigateForward",
                        "label": "&&Forward",
                        "enabled": false
                    },
                    {
                        "id": "vscode.menubar.separator"
                    },
                    {
                        "id": "",
                        "label": "Switch &&Editor",
                        "submenu": {
                            "items": [
                                {
                                    "id": "workbench.action.nextEditor",
                                    "label": "&&Next Editor"
                                },
                                {
                                    "id": "workbench.action.previousEditor",
                                    "label": "&&Previous Editor"
                                },
                                {
                                    "id": "vscode.menubar.separator"
                                },
                                {
                                    "id": "workbench.action.openNextRecentlyUsedEditorInGroup",
                                    "label": "&&Next Used Editor in Group"
                                },
                                {
                                    "id": "workbench.action.openPreviousRecentlyUsedEditorInGroup",
                                    "label": "&&Previous Used Editor in Group"
                                }
                            ]
                        }
                    },
                    {
                        "id": "",
                        "label": "Switch &&Group",
                        "submenu": {
                            "items": [
                                {
                                    "id": "workbench.action.focusFirstEditorGroup",
                                    "label": "Group &&1"
                                },
                                {
                                    "id": "workbench.action.focusSecondEditorGroup",
                                    "label": "Group &&2"
                                },
                                {
                                    "id": "workbench.action.focusThirdEditorGroup",
                                    "label": "Group &&3"
                                },
                                {
                                    "id": "workbench.action.focusFourthEditorGroup",
                                    "label": "Group &&4"
                                },
                                {
                                    "id": "workbench.action.focusFifthEditorGroup",
                                    "label": "Group &&5"
                                },
                                {
                                    "id": "vscode.menubar.separator"
                                },
                                {
                                    "id": "workbench.action.focusNextGroup",
                                    "label": "&&Next Group"
                                },
                                {
                                    "id": "workbench.action.focusPreviousGroup",
                                    "label": "&&Previous Group"
                                },
                                {
                                    "id": "vscode.menubar.separator"
                                },
                                {
                                    "id": "workbench.action.focusLeftGroup",
                                    "label": "Group &&Left"
                                },
                                {
                                    "id": "workbench.action.focusRightGroup",
                                    "label": "Group &&Right"
                                },
                                {
                                    "id": "workbench.action.focusAboveGroup",
                                    "label": "Group &&Above"
                                },
                                {
                                    "id": "workbench.action.focusBelowGroup",
                                    "label": "Group &&Below"
                                }
                            ]
                        }
                    },
                    {
                        "id": "vscode.menubar.separator"
                    },
                    {
                        "id": "workbench.action.quickOpen",
                        "label": "Go to &&File..."
                    },
                    {
                        "id": "workbench.action.gotoSymbol",
                        "label": "Go to &&Symbol in File..."
                    },
                    {
                        "id": "workbench.action.showAllSymbols",
                        "label": "Go to Symbol in &&Workspace..."
                    },
                    {
                        "id": "editor.action.goToDeclaration",
                        "label": "Go to &&Definition"
                    },
                    {
                        "id": "editor.action.goToTypeDefinition",
                        "label": "Go to &&Type Definition"
                    },
                    {
                        "id": "editor.action.goToImplementation",
                        "label": "Go to &&Implementation"
                    },
                    {
                        "id": "workbench.action.gotoLine",
                        "label": "Go to &&Line..."
                    }
                ]
            },
            "Debug": {
                "items": [
                    {
                        "id": "workbench.action.debug.start",
                        "label": "&&Start Debugging"
                    },
                    {
                        "id": "workbench.action.debug.run",
                        "label": "Start &&Without Debugging"
                    },
                    {
                        "id": "workbench.action.debug.stop",
                        "label": "&&Stop Debugging",
                        "enabled": false
                    },
                    {
                        "id": "workbench.action.debug.restart",
                        "label": "&&Restart Debugging",
                        "enabled": false
                    },
                    {
                        "id": "vscode.menubar.separator"
                    },
                    {
                        "id": "workbench.action.debug.configure",
                        "label": "Open &&Configurations"
                    },
                    {
                        "id": "debug.addConfiguration",
                        "label": "A&&dd Configuration..."
                    },
                    {
                        "id": "vscode.menubar.separator"
                    },
                    {
                        "id": "workbench.action.debug.stepOver",
                        "label": "Step &&Over",
                        "enabled": false
                    },
                    {
                        "id": "workbench.action.debug.stepInto",
                        "label": "Step &&Into",
                        "enabled": false
                    },
                    {
                        "id": "workbench.action.debug.stepOut",
                        "label": "Step O&&ut",
                        "enabled": false
                    },
                    {
                        "id": "workbench.action.debug.continue",
                        "label": "&&Continue",
                        "enabled": false
                    },
                    {
                        "id": "vscode.menubar.separator"
                    },
                    {
                        "id": "editor.debug.action.toggleBreakpoint",
                        "label": "Toggle &&Breakpoint"
                    },
                    {
                        "id": "",
                        "label": "&&New Breakpoint",
                        "submenu": {
                            "items": [
                                {
                                    "id": "editor.debug.action.conditionalBreakpoint",
                                    "label": "&&Conditional Breakpoint..."
                                },
                                {
                                    "id": "editor.debug.action.toggleInlineBreakpoint",
                                    "label": "Inline Breakp&&oint"
                                },
                                {
                                    "id": "workbench.debug.viewlet.action.addFunctionBreakpointAction",
                                    "label": "&&Function Breakpoint..."
                                },
                                {
                                    "id": "editor.debug.action.toggleLogPoint",
                                    "label": "&&Logpoint..."
                                }
                            ]
                        }
                    },
                    {
                        "id": "vscode.menubar.separator"
                    },
                    {
                        "id": "workbench.debug.viewlet.action.enableAllBreakpoints",
                        "label": "&&Enable All Breakpoints"
                    },
                    {
                        "id": "workbench.debug.viewlet.action.disableAllBreakpoints",
                        "label": "Disable A&&ll Breakpoints"
                    },
                    {
                        "id": "workbench.debug.viewlet.action.removeAllBreakpoints",
                        "label": "Remove &&All Breakpoints"
                    },
                    {
                        "id": "vscode.menubar.separator"
                    },
                    {
                        "id": "debug.installAdditionalDebuggers",
                        "label": "&&Install Additional Debuggers..."
                    }
                ]
            },
            "Terminal": {
                "items": [
                    {
                        "id": "workbench.action.terminal.new",
                        "label": "&&New Terminal"
                    },
                    {
                        "id": "workbench.action.terminal.split",
                        "label": "&&Split Terminal"
                    },
                    {
                        "id": "vscode.menubar.separator"
                    },
                    {
                        "id": "workbench.action.tasks.runTask",
                        "label": "&&Run Task..."
                    },
                    {
                        "id": "workbench.action.tasks.build",
                        "label": "Run &&Build Task..."
                    },
                    {
                        "id": "workbench.action.terminal.runActiveFile",
                        "label": "Run &&Active File"
                    },
                    {
                        "id": "workbench.action.terminal.runSelectedText",
                        "label": "Run &&Selected Text"
                    },
                    {
                        "id": "vscode.menubar.separator"
                    },
                    {
                        "id": "workbench.action.tasks.showTasks",
                        "label": "Show Runnin&&g Tasks...",
                        "enabled": false
                    },
                    {
                        "id": "workbench.action.tasks.restartTask",
                        "label": "R&&estart Running Task...",
                        "enabled": false
                    },
                    {
                        "id": "workbench.action.tasks.terminate",
                        "label": "&&Terminate Task...",
                        "enabled": false
                    },
                    {
                        "id": "vscode.menubar.separator"
                    },
                    {
                        "id": "workbench.action.tasks.configureTaskRunner",
                        "label": "&&Configure Tasks..."
                    },
                    {
                        "id": "workbench.action.tasks.configureDefaultBuildTask",
                        "label": "Configure De&&fault Build Task..."
                    }
                ]
            },
            "Help": {
                "items": [
                    {
                        "id": "workbench.action.showWelcomePage",
                        "label": "&&Welcome"
                    },
                    {
                        "id": "workbench.action.showInteractivePlayground",
                        "label": "&&Interactive Playground"
                    },
                    {
                        "id": "workbench.action.openDocumentationUrl",
                        "label": "&&Documentation"
                    },
                    {
                        "id": "update.showCurrentReleaseNotes",
                        "label": "&&Release Notes"
                    },
                    {
                        "id": "vscode.menubar.separator"
                    },
                    {
                        "id": "workbench.action.keybindingsReference",
                        "label": "&&Keyboard Shortcuts Reference"
                    },
                    {
                        "id": "workbench.action.openIntroductoryVideosUrl",
                        "label": "Introductory &&Videos"
                    },
                    {
                        "id": "workbench.action.openTipsAndTricksUrl",
                        "label": "&&Tips and Tricks"
                    },
                    {
                        "id": "vscode.menubar.separator"
                    },
                    {
                        "id": "workbench.action.openTwitterUrl",
                        "label": "&&Join Us on Twitter"
                    },
                    {
                        "id": "workbench.action.openRequestFeatureUrl",
                        "label": "&&Search Feature Requests"
                    },
                    {
                        "id": "workbench.action.openIssueReporter",
                        "label": "Report &&Issue"
                    },
                    {
                        "id": "vscode.menubar.separator"
                    },
                    {
                        "id": "workbench.action.openLicenseUrl",
                        "label": "View &&License"
                    },
                    {
                        "id": "workbench.action.openPrivacyStatementUrl",
                        "label": "&&Privacy Statement"
                    },
                    {
                        "id": "vscode.menubar.separator"
                    },
                    {
                        "id": "workbench.action.toggleDevTools",
                        "label": "&&Toggle Developer Tools"
                    },
                    {
                        "id": "workbench.action.openProcessExplorer",
                        "label": "Open &&Process Explorer"
                    },
                    {
                        "id": "vscode.menubar.separator"
                    },
                    {
                        "id": "workbench.action.showAboutDialog",
                        "label": "&&About"
                    }
                ]
            }
        },
        "keybindings": {
            "workbench.action.files.newUntitledFile": {
                "label": "Ctrl+N"
            },
            "workbench.action.newWindow": {
                "label": "Ctrl+X Ctrl+N",
                "isNative": false
            },
            "workbench.action.files.openFile": {
                "label": "Ctrl+O"
            },
            "workbench.action.files.openFolder": {
                "label": "Ctrl+K Ctrl+O",
                "isNative": false
            },
            "workbench.action.reopenClosedEditor": {
                "label": "Ctrl+Shift+T"
            },
            "workbench.action.files.save": {
                "label": "Ctrl+X Ctrl+S",
                "isNative": false
            },
            "workbench.action.files.saveAs": {
                "label": "Ctrl+X Ctrl+W",
                "isNative": false
            },
            "workbench.action.openSettings": {
                "label": "Ctrl+,",
                "isNative": false
            },
            "workbench.view.extensions": {
                "label": "Ctrl+Shift+X"
            },
            "workbench.action.openGlobalKeybindings": {
                "label": "Ctrl+K Ctrl+S",
                "isNative": false
            },
            "workbench.extensions.action.showRecommendedKeymapExtensions": {
                "label": "Ctrl+K Ctrl+M",
                "isNative": false
            },
            "workbench.action.selectTheme": {
                "label": "Ctrl+K Ctrl+T",
                "isNative": false
            },
            "workbench.action.closeActiveEditor": {
                "label": "Ctrl+X 0",
                "isNative": false
            },
            "workbench.action.closeFolder": {
                "label": "Ctrl+K F",
                "isNative": false
            },
            "workbench.action.closeWindow": {
                "label": "Ctrl+X Ctrl+C",
                "isNative": false
            },
            "workbench.action.quit": {
                "label": "Ctrl+Q"
            },
            "undo": {
                "label": "Ctrl+Z"
            },
            "redo": {
                "label": "Ctrl+R"
            },
            "editor.action.clipboardCopyAction": {
                "label": "Ctrl+C"
            },
            "editor.action.clipboardPasteAction": {
                "label": "Ctrl+V"
            },
            "actions.find": {
                "label": "Ctrl+S"
            },
            "editor.action.startFindReplaceAction": {
                "label": "Shift+Alt+5"
            },
            "workbench.action.findInFiles": {
                "label": "Ctrl+Shift+F"
            },
            "workbench.action.replaceInFiles": {
                "label": "Ctrl+Shift+H"
            },
            "editor.action.commentLine": {
                "label": "Ctrl+;",
                "isNative": false
            },
            "editor.action.blockComment": {
                "label": "Alt+;",
                "isNative": false
            },
            "editor.emmet.action.expandAbbreviation": {
                "label": "Tab"
            },
            "editor.action.selectAll": {
                "label": "Ctrl+X H",
                "isNative": false
            },
            "editor.action.smartSelect.grow": {
                "label": "Shift+Alt+Right"
            },
            "editor.action.smartSelect.shrink": {
                "label": "Shift+Alt+Left"
            },
            "editor.action.copyLinesUpAction": {
                "label": "Ctrl+Shift+Alt+Up"
            },
            "editor.action.copyLinesDownAction": {
                "label": "Ctrl+Shift+Alt+Down"
            },
            "editor.action.moveLinesUpAction": {
                "label": "Alt+Up"
            },
            "editor.action.moveLinesDownAction": {
                "label": "Alt+Down"
            },
            "editor.action.insertCursorAbove": {
                "label": "Shift+Alt+Up"
            },
            "editor.action.insertCursorBelow": {
                "label": "Shift+Alt+Down"
            },
            "editor.action.insertCursorAtEndOfEachLineSelected": {
                "label": "Shift+Alt+I"
            },
            "editor.action.addSelectionToNextFindMatch": {
                "label": "Ctrl+Alt+N"
            },
            "editor.action.selectHighlights": {
                "label": "Ctrl+Shift+L"
            },
            "workbench.action.showCommands": {
                "label": "Alt+X"
            },
            "workbench.action.toggleFullScreen": {
                "label": "F11"
            },
            "workbench.action.toggleZenMode": {
                "label": "Ctrl+X Z",
                "isNative": false
            },
            "workbench.action.toggleSidebarVisibility": {
                "label": "Ctrl+Alt+Space"
            },
            "workbench.action.togglePanel": {
                "label": "Ctrl+J"
            },
            "workbench.action.zoomIn": {
                "label": "Ctrl+=",
                "isNative": false
            },
            "workbench.action.zoomOut": {
                "label": "Ctrl+-",
                "isNative": false
            },
            "workbench.action.zoomReset": {
                "label": "Ctrl+NumPad0",
                "isNative": false
            },
            "workbench.action.splitEditorDown": {
                "label": "Ctrl+X 2",
                "isNative": false
            },
            "workbench.action.toggleEditorGroupLayout": {
                "label": "Shift+Alt+0"
            },
            "workbench.view.explorer": {
                "label": "Ctrl+Shift+E"
            },
            "workbench.view.search": {
                "label": "Ctrl+Shift+F"
            },
            "workbench.view.scm": {
                "label": "Ctrl+Shift+G G",
                "isNative": false
            },
            "workbench.view.debug": {
                "label": "Ctrl+Shift+D"
            },
            "workbench.action.output.toggleOutput": {
                "label": "Ctrl+K Ctrl+H",
                "isNative": false
            },
            "workbench.debug.action.toggleRepl": {
                "label": "Ctrl+Shift+Y"
            },
            "workbench.action.terminal.toggleTerminal": {
                "label": "Ctrl+`",
                "isNative": false
            },
            "workbench.actions.view.problems": {
                "label": "Ctrl+Shift+M"
            },
            "editor.action.toggleWordWrap": {
                "label": "Alt+Z"
            },
            "workbench.action.navigateForward": {
                "label": "Ctrl+Shift+-",
                "isNative": false
            },
            "workbench.action.nextEditor": {
                "label": "Ctrl+PageDown"
            },
            "workbench.action.previousEditor": {
                "label": "Ctrl+PageUp"
            },
            "workbench.action.openNextRecentlyUsedEditorInGroup": {
                "label": "Ctrl+Tab"
            },
            "workbench.action.openPreviousRecentlyUsedEditorInGroup": {
                "label": "Ctrl+Shift+Tab"
            },
            "workbench.action.focusFirstEditorGroup": {
                "label": "Ctrl+1"
            },
            "workbench.action.focusSecondEditorGroup": {
                "label": "Ctrl+2"
            },
            "workbench.action.focusThirdEditorGroup": {
                "label": "Ctrl+3"
            },
            "workbench.action.focusFourthEditorGroup": {
                "label": "Ctrl+4"
            },
            "workbench.action.focusFifthEditorGroup": {
                "label": "Ctrl+5"
            },
            "workbench.action.focusLeftGroup": {
                "label": "Ctrl+K Ctrl+LeftArrow",
                "isNative": false
            },
            "workbench.action.focusRightGroup": {
                "label": "Ctrl+K Ctrl+RightArrow",
                "isNative": false
            },
            "workbench.action.focusAboveGroup": {
                "label": "Ctrl+K Ctrl+UpArrow",
                "isNative": false
            },
            "workbench.action.focusBelowGroup": {
                "label": "Ctrl+K Ctrl+DownArrow",
                "isNative": false
            },
            "workbench.action.quickOpen": {
                "label": "Ctrl+X Ctrl+F",
                "isNative": false
            },
            "workbench.action.gotoSymbol": {
                "label": "Ctrl+Shift+O"
            },
            "workbench.action.showAllSymbols": {
                "label": "Ctrl+T"
            },
            "editor.action.goToDeclaration": {
                "label": "F12"
            },
            "editor.action.goToImplementation": {
                "label": "Ctrl+F12"
            },
            "workbench.action.gotoLine": {
                "label": "Alt+G G",
                "isNative": false
            },
            "workbench.action.debug.start": {
                "label": "F5"
            },
            "workbench.action.debug.run": {
                "label": "Ctrl+F5"
            },
            "workbench.action.debug.stop": {
                "label": "Shift+F5"
            },
            "workbench.action.debug.restart": {
                "label": "Ctrl+Shift+F5"
            },
            "workbench.action.debug.stepOver": {
                "label": "F10"
            },
            "workbench.action.debug.stepInto": {
                "label": "F11"
            },
            "workbench.action.debug.stepOut": {
                "label": "Shift+F11"
            },
            "workbench.action.debug.continue": {
                "label": "F5"
            },
            "editor.debug.action.toggleBreakpoint": {
                "label": "F9"
            },
            "editor.debug.action.toggleInlineBreakpoint": {
                "label": "Shift+F9"
            },
            "workbench.action.terminal.new": {
                "label": "Ctrl+Shift+#",
                "isNative": false
            },
            "workbench.action.terminal.split": {
                "label": "Ctrl+\\",
                "isNative": false
            },
            "workbench.action.tasks.build": {
                "label": "Ctrl+Shift+B"
            },
            "workbench.action.keybindingsReference": {
                "label": "Ctrl+K Ctrl+R",
                "isNative": false
            }
        }
    },
    "theme": "vs-dark",
    "themeBackground": "#1e1e1e",
    "windowsState": {
        "openedWindows": [],
        "lastActiveWindow": {
            "folderUri": {
                "$mid": 1,
                "fsPath": "/home/kai/dev/nekaiko/webcourse",
                "external": "file:///home/kai/dev/nekaiko/webcourse",
                "path": "/home/kai/dev/nekaiko/webcourse",
                "scheme": "file"
            },
            "backupPath": "/home/kai/.config/Code/Backups/004cabed702b2149a7aa5d372bceb33e",
            "uiState": {
                "mode": 1,
                "x": 10,
                "y": 48,
                "width": 2126,
                "height": 1567
            }
        }
    },
    "openedPathsList": {
        "workspaces2": [
            "file:///home/kai/dev/nekaiko/webcourse",
            "file:///home/kai/dev/nekaiko/nekaikoconfigs",
            "file:///home/kai/dev/nemiah/buffalo7.co.uk"
        ],
        "files2": [
            "file:///home/kai/ovpn/VPNConfig.ovpn"
        ]
    },
    "pickerWorkingDir": "/home/kai/ovpn"
}